{
	"log": {

		"debug": false,
		"packagingInstructions": false
	},

	"jenkinsJob": true,

	"deploySettings": {

		"sfOrg": "",
		"sfUsername": "",
		"sfPassword": "",
		"sfServerUrl": "",
		"gitBranch": "",
		"pendingCountMax": 5,
		"buildMonitorInterval": 5000,
		"buildMaxRetries": 10
	},

	"globalPaths": {

		"pathToRepo": "../../",
		"diffsDir": "diffs/",
		"commitRefDir": "latest-commit/",
		"commitRef": "",
		"deployDir": "deploy/"
	},

	"preDeployIFTTT": [

		{	
			"name": "Customer Conversion Typescripts",
			
			"blockAction": false,

			"bypassCondition": false,

			"ifThis": "git --git-dir=%pathToRepo%.git/ --work-tree=%pathToRepo% diff --name-only %oldHead% %newHead% -- %pathToRepo%customer-conversion %pathToRepo%src/pages/IdentityVerification.page",

			"thenThese": [

				"cd %pathToRepo%customer-conversion", 

				"npm install",

				"npm run build",

				"cd ../node_modules/deploy-params",

				"cat %pathToRepo%customer-conversion/cc-files.txt >> %diffsDir%diff"
			],

			"noChangesMessage": "NO CHANGES found in customer-conversion folder.",

			"inProgressMessage": "CHANGES FOUND in customer-conversion folder. Generating files...",

			"failureMessage": "Could not perform steps specific to customer-conversion"
		}
	],

	"targets": [

		{
			"dirPath": "src/sites/Dev_Community.site",

			"changes": [

				{
					"value": "mySiteAdmin",
					"xmlPath": "siteAdmin"
				},

				{
					"value": "mySubdomain",
					"xmlPath": "subdomain"
				}
			],

			"needsRepoUpdate": false,

			"bypassChanges": false
		},

		{
			"dirPath": "dependencies/package.xml",

			"changes": [

				{
					"value": [],
					"xmlPath": "types"
				}
			],

			"needsRepoUpdate": true,

			"bypassChanges": false,

			"antDeployCommand": "deployDependencies",

			"blockDeploy": false
		},

		{
			"dirPath": "src/package.xml",

			"changes": [

				{
					"value": [],
					"xmlPath": "types"
				}
			],

			"needsRepoUpdate": true,

			"bypassChanges": false,

			"antDeployCommand": "deployCode",

			"blockDeploy": false
		}
	],

	"reports": {

		"added-renamed": {

			"htmlFilePath": "report/added-renamed.html",
			"filesSummary": "open",
			"templatePath": "report/template/template-added-renamed"
		},

		"non-upgradable-modified": {

			"htmlFilePath": "report/non-upgradable-modified.html",
			"filesSummary": "closed",
			"templatePath": "report/template/template-non-upgradable-modified"
		},

		"deleted": {

			"htmlFilePath": "report/deleted.html",
			"filesSummary": "open",
			"templatePath": "report/template/template-deleted"
		},

		"objects": {

			"htmlFilePath": "report/objects.html",
			"filesSummary": "closed",
			"templatePath": "report/template/template-objects"
		},

		"upgradable-modified": {

			"htmlFilePath": "report/upgradable-modified.html",
			"filesSummary": "open",
			"templatePath": "report/template/template-upgradable-modified"
		},

		"xml-changes": {

			"htmlFilePath": "report/xml-changes.html",
			"filesSummary": "closed",
			"templatePath": "report/template/template-xml-changes"
		},

		"all": {

			"htmlFilePath": "report/all.html",
			"filesSummary": "open",
			"templatePath": "report/template/template-all"
		}
	}
}